{
  "className": "com.rafaelbraga.epam.budgettracker.integration.spring.tests.BudgetTrackerJGivenTests",
  "name": "Budget Tracker J Given",
  "scenarios": [
    {
      "className": "com.rafaelbraga.epam.budgettracker.integration.spring.tests.BudgetTrackerJGivenTests",
      "testMethodName": "validate_that_when_i_get_total_spendings_without_any_then_no_spendings_is_returned",
      "description": "validate that when i get total spendings without any then no spendings is returned",
      "tagIds": [],
      "explicitParameters": [],
      "derivedParameters": [],
      "casesAsTable": false,
      "scenarioCases": [
        {
          "caseNr": 1,
          "steps": [
            {
              "name": "i get total spendings",
              "words": [
                {
                  "value": "When",
                  "isIntroWord": true
                },
                {
                  "value": "i get total spendings"
                },
                {
                  "value": "/budgets/total",
                  "argumentInfo": {
                    "argumentName": "path",
                    "formattedValue": "\"/budgets/total\""
                  }
                }
              ],
              "status": "PASSED",
              "durationInNanos": 4584500
            },
            {
              "name": "the status is",
              "words": [
                {
                  "value": "then",
                  "isIntroWord": true
                },
                {
                  "value": "the status is"
                },
                {
                  "value": "200 OK",
                  "argumentInfo": {
                    "argumentName": "status",
                    "formattedValue": "OK (200)"
                  }
                }
              ],
              "status": "PASSED",
              "durationInNanos": 78500
            },
            {
              "name": "the content contains",
              "words": [
                {
                  "value": "and",
                  "isIntroWord": true
                },
                {
                  "value": "the content contains"
                },
                {
                  "value": "\"spendings\":0.0",
                  "argumentInfo": {
                    "argumentName": "content",
                    "formattedValue": "\"spendings\":0.0"
                  }
                }
              ],
              "status": "PASSED",
              "durationInNanos": 7935700
            }
          ],
          "explicitArguments": [],
          "derivedArguments": [],
          "status": "SUCCESS",
          "success": true,
          "durationInNanos": 317487700
        }
      ],
      "durationInNanos": 317487700,
      "executionStatus": "SUCCESS"
    },
    {
      "className": "com.rafaelbraga.epam.budgettracker.integration.spring.tests.BudgetTrackerJGivenTests",
      "testMethodName": "validate_that_an_spending_can_not_be_zero_and_will_return_a_bad_request",
      "description": "validate that an spending can not be zero and will return a bad request",
      "tagIds": [],
      "explicitParameters": [],
      "derivedParameters": [],
      "casesAsTable": false,
      "scenarioCases": [
        {
          "caseNr": 1,
          "steps": [
            {
              "name": "that i have the following spendings",
              "words": [
                {
                  "value": "Given",
                  "isIntroWord": true
                },
                {
                  "value": "that i have the following spendings"
                },
                {
                  "value": "com.rafaelbraga.epam.budgettracker.pojo.Spending@26b150cd",
                  "argumentInfo": {
                    "argumentName": "spendings",
                    "dataTable": {
                      "headerType": "HORIZONTAL",
                      "data": [
                        [
                          "spending",
                          "price"
                        ],
                        [
                          "\"Spending 1\"",
                          "0"
                        ]
                      ]
                    }
                  }
                }
              ],
              "status": "PASSED",
              "durationInNanos": 121000
            },
            {
              "name": "i post a new spending",
              "words": [
                {
                  "value": "when",
                  "isIntroWord": true
                },
                {
                  "value": "i post a new spending"
                },
                {
                  "value": "{\"description\": \"Spending 1\", \"price\":\"0\"}",
                  "argumentInfo": {
                    "argumentName": "content",
                    "formattedValue": "{\"description\": \"Spending 1\", \"price\":\"0\"}"
                  }
                }
              ],
              "status": "PASSED",
              "durationInNanos": 82100
            },
            {
              "name": "the status is",
              "words": [
                {
                  "value": "then",
                  "isIntroWord": true
                },
                {
                  "value": "the status is"
                },
                {
                  "value": "400 BAD_REQUEST",
                  "argumentInfo": {
                    "argumentName": "status",
                    "formattedValue": "Bad Request (400)"
                  }
                }
              ],
              "status": "PASSED",
              "durationInNanos": 771200
            }
          ],
          "explicitArguments": [],
          "derivedArguments": [],
          "status": "SUCCESS",
          "success": true,
          "durationInNanos": 186207000
        }
      ],
      "durationInNanos": 186207000,
      "executionStatus": "SUCCESS"
    },
    {
      "className": "com.rafaelbraga.epam.budgettracker.integration.spring.tests.BudgetTrackerJGivenTests",
      "testMethodName": "validate_that_when_we_get_summary_with_no_spendings_then_we_will_get_an_empty_response",
      "description": "validate that when we get summary with no spendings then we will get an empty response",
      "tagIds": [],
      "explicitParameters": [],
      "derivedParameters": [],
      "casesAsTable": false,
      "scenarioCases": [
        {
          "caseNr": 1,
          "steps": [
            {
              "name": "i get spendings summary",
              "words": [
                {
                  "value": "When",
                  "isIntroWord": true
                },
                {
                  "value": "i get spendings summary"
                },
                {
                  "value": "/budgets",
                  "argumentInfo": {
                    "argumentName": "path",
                    "formattedValue": "\"/budgets\""
                  }
                }
              ],
              "status": "PASSED",
              "durationInNanos": 103087600
            },
            {
              "name": "the status is",
              "words": [
                {
                  "value": "Then",
                  "isIntroWord": true
                },
                {
                  "value": "the status is"
                },
                {
                  "value": "200 OK",
                  "argumentInfo": {
                    "argumentName": "status",
                    "formattedValue": "OK (200)"
                  }
                }
              ],
              "status": "PASSED",
              "durationInNanos": 38100
            },
            {
              "name": "the content is",
              "words": [
                {
                  "value": "and",
                  "isIntroWord": true
                },
                {
                  "value": "the content is"
                },
                {
                  "value": "[]",
                  "argumentInfo": {
                    "argumentName": "content",
                    "formattedValue": "\"[]\""
                  }
                }
              ],
              "status": "PASSED",
              "durationInNanos": 2286600
            }
          ],
          "explicitArguments": [],
          "derivedArguments": [],
          "status": "SUCCESS",
          "success": true,
          "durationInNanos": 131197800
        }
      ],
      "durationInNanos": 131197800,
      "executionStatus": "SUCCESS"
    },
    {
      "className": "com.rafaelbraga.epam.budgettracker.integration.spring.tests.BudgetTrackerJGivenTests",
      "testMethodName": "validate_that_when_we_get_total_spendings_then_the_content_is_the_sum_of_our_spendings_created",
      "description": "validate that when we get total spendings then the content is the sum of our spendings created",
      "tagIds": [],
      "explicitParameters": [],
      "derivedParameters": [],
      "casesAsTable": false,
      "scenarioCases": [
        {
          "caseNr": 1,
          "steps": [
            {
              "name": "that i have the following spendings",
              "words": [
                {
                  "value": "Given",
                  "isIntroWord": true
                },
                {
                  "value": "that i have the following spendings"
                },
                {
                  "value": "com.rafaelbraga.epam.budgettracker.pojo.Spending@202ed88d, com.rafaelbraga.epam.budgettracker.pojo.Spending@40f7fb45",
                  "argumentInfo": {
                    "argumentName": "spendings",
                    "dataTable": {
                      "headerType": "HORIZONTAL",
                      "data": [
                        [
                          "spending",
                          "price"
                        ],
                        [
                          "\"Spending 1\"",
                          "10"
                        ],
                        [
                          "\"Spending 2\"",
                          "20"
                        ]
                      ]
                    }
                  }
                }
              ],
              "status": "PASSED",
              "durationInNanos": 23700
            },
            {
              "name": "i post a new spending",
              "words": [
                {
                  "value": "when",
                  "isIntroWord": true
                },
                {
                  "value": "i post a new spending"
                },
                {
                  "value": "{\"description\": \"Spending 1\", \"price\":\"10\"}",
                  "argumentInfo": {
                    "argumentName": "content",
                    "formattedValue": "{\"description\": \"Spending 1\", \"price\":\"10\"}"
                  }
                }
              ],
              "status": "PASSED",
              "durationInNanos": 28800
            },
            {
              "name": "i post a new spending",
              "words": [
                {
                  "value": "and",
                  "isIntroWord": true
                },
                {
                  "value": "i post a new spending"
                },
                {
                  "value": "{\"description\": \"Spending 2\", \"price\":\"20\"}",
                  "argumentInfo": {
                    "argumentName": "content",
                    "formattedValue": "{\"description\": \"Spending 2\", \"price\":\"20\"}"
                  }
                }
              ],
              "status": "PASSED",
              "durationInNanos": 28300
            },
            {
              "name": "i get total spendings",
              "words": [
                {
                  "value": "and",
                  "isIntroWord": true
                },
                {
                  "value": "i get total spendings"
                },
                {
                  "value": "/budgets/total",
                  "argumentInfo": {
                    "argumentName": "path",
                    "formattedValue": "\"/budgets/total\""
                  }
                }
              ],
              "status": "PASSED",
              "durationInNanos": 31100
            },
            {
              "name": "the status is",
              "words": [
                {
                  "value": "then",
                  "isIntroWord": true
                },
                {
                  "value": "the status is"
                },
                {
                  "value": "200 OK",
                  "argumentInfo": {
                    "argumentName": "status",
                    "formattedValue": "OK (200)"
                  }
                }
              ],
              "status": "PASSED",
              "durationInNanos": 26400
            },
            {
              "name": "the content contains",
              "words": [
                {
                  "value": "and",
                  "isIntroWord": true
                },
                {
                  "value": "the content contains"
                },
                {
                  "value": "\"spendings\":30.00",
                  "argumentInfo": {
                    "argumentName": "content",
                    "formattedValue": "\"spendings\":30.00"
                  }
                }
              ],
              "status": "PASSED",
              "durationInNanos": 539900
            }
          ],
          "explicitArguments": [],
          "derivedArguments": [],
          "status": "SUCCESS",
          "success": true,
          "durationInNanos": 125458600
        }
      ],
      "durationInNanos": 125458600,
      "executionStatus": "SUCCESS"
    },
    {
      "className": "com.rafaelbraga.epam.budgettracker.integration.spring.tests.BudgetTrackerJGivenTests",
      "testMethodName": "validate_that_when_we_post_2_spendingd_then_when_we_get_summary_it_will_contain_only_2_spendings",
      "description": "validate that when we post 2 spendingd then when we get summary it will contain only 2 spendings",
      "tagIds": [],
      "explicitParameters": [],
      "derivedParameters": [],
      "casesAsTable": false,
      "scenarioCases": [
        {
          "caseNr": 1,
          "steps": [
            {
              "name": "that i have the following spendings",
              "words": [
                {
                  "value": "Given",
                  "isIntroWord": true
                },
                {
                  "value": "that i have the following spendings"
                },
                {
                  "value": "com.rafaelbraga.epam.budgettracker.pojo.Spending@188ccb6c, com.rafaelbraga.epam.budgettracker.pojo.Spending@7061a5e7",
                  "argumentInfo": {
                    "argumentName": "spendings",
                    "dataTable": {
                      "headerType": "HORIZONTAL",
                      "data": [
                        [
                          "spending",
                          "price"
                        ],
                        [
                          "\"Spending 1\"",
                          "10"
                        ],
                        [
                          "\"Spending 2\"",
                          "20"
                        ]
                      ]
                    }
                  }
                }
              ],
              "status": "PASSED",
              "durationInNanos": 34300
            },
            {
              "name": "i post a new spending",
              "words": [
                {
                  "value": "when",
                  "isIntroWord": true
                },
                {
                  "value": "i post a new spending"
                },
                {
                  "value": "{\"description\": \"Spending 1\", \"price\":\"10\"}",
                  "argumentInfo": {
                    "argumentName": "content",
                    "formattedValue": "{\"description\": \"Spending 1\", \"price\":\"10\"}"
                  }
                }
              ],
              "status": "PASSED",
              "durationInNanos": 36700
            },
            {
              "name": "i post a new spending",
              "words": [
                {
                  "value": "and",
                  "isIntroWord": true
                },
                {
                  "value": "i post a new spending"
                },
                {
                  "value": "{\"description\": \"Spending 2\", \"price\":\"20\"}",
                  "argumentInfo": {
                    "argumentName": "content",
                    "formattedValue": "{\"description\": \"Spending 2\", \"price\":\"20\"}"
                  }
                }
              ],
              "status": "PASSED",
              "durationInNanos": 42900
            },
            {
              "name": "i get spendings summary",
              "words": [
                {
                  "value": "when",
                  "isIntroWord": true
                },
                {
                  "value": "i get spendings summary"
                },
                {
                  "value": "/budgets",
                  "argumentInfo": {
                    "argumentName": "path",
                    "formattedValue": "\"/budgets\""
                  }
                }
              ],
              "status": "PASSED",
              "durationInNanos": 35000
            },
            {
              "name": "the status is",
              "words": [
                {
                  "value": "then",
                  "isIntroWord": true
                },
                {
                  "value": "the status is"
                },
                {
                  "value": "200 OK",
                  "argumentInfo": {
                    "argumentName": "status",
                    "formattedValue": "OK (200)"
                  }
                }
              ],
              "status": "PASSED",
              "durationInNanos": 34100
            },
            {
              "name": "the summary list size is",
              "words": [
                {
                  "value": "and",
                  "isIntroWord": true
                },
                {
                  "value": "the summary list size is"
                },
                {
                  "value": "2",
                  "argumentInfo": {
                    "argumentName": "size",
                    "formattedValue": "2"
                  }
                }
              ],
              "status": "PASSED",
              "durationInNanos": 53600
            },
            {
              "name": "the content is",
              "words": [
                {
                  "value": "and",
                  "isIntroWord": true
                },
                {
                  "value": "the content is"
                },
                {
                  "value": "[{\"description\":\"Spending 1\",\"price\":10.00},{\"description\":\"Spending 2\",\"price\":20.00}]",
                  "argumentInfo": {
                    "argumentName": "content",
                    "formattedValue": "\"[{\"description\":\"Spending 1\",\"price\":10.00},{\"description\":\"Spending 2\",\"price\":20.00}]\""
                  }
                }
              ],
              "status": "PASSED",
              "durationInNanos": 922900
            }
          ],
          "explicitArguments": [],
          "derivedArguments": [],
          "status": "SUCCESS",
          "success": true,
          "durationInNanos": 96868000
        }
      ],
      "durationInNanos": 96868000,
      "executionStatus": "SUCCESS"
    }
  ],
  "tagMap": {}
}